<svg width="40" height="35" viewBox="0 0 40 35" fill="none" xmlns="http://www.w3.org/2000/svg">
<path d="M29.5673 0.318187C26.1882 1.21095 24.1461 3.76858 23.7815 7.50851L23.6356 9.17338L22.4201 7.67741C21.0344 5.96428 19.3327 4.68546 17.8497 4.29941C16.221 3.86509 13.8629 4.13051 12.2827 4.90262C7.90683 7.07419 6.52115 11.2002 8.5389 16.1465L9.12235 17.546L7.97977 17.6908C6.22943 17.9321 4.35753 18.9696 2.58288 20.731C0.905472 22.42 0.346336 23.5299 0.030302 25.798C-0.13987 27.1974 0.419267 29.8033 1.39168 32.1679C2.16961 33.9776 2.16961 34.0017 3.04478 34.0017C5.25701 33.9776 39.8262 31.8784 39.9721 31.7577C40.118 31.613 39.6561 10.3798 39.413 5.52996L39.2671 2.75518L38.2461 1.79003C37.614 1.18682 36.7388 0.655988 35.9366 0.390573C34.405 -0.0919989 31.2447 -0.140256 29.5673 0.318187ZM35.5476 13.613C35.888 13.9267 36.1554 14.4817 36.1554 14.8195C36.1554 15.5675 35.1587 16.6291 34.4537 16.6291C34.1619 16.6291 33.7 16.5085 33.4326 16.3637C33.0437 16.1465 32.4602 16.2431 30.7099 16.7498L28.4733 17.4012L28.1573 18.5353C27.9871 19.1385 27.6954 19.8382 27.4766 20.0554C27.2578 20.2967 27.1363 20.538 27.1849 20.5862C27.2335 20.6345 28.7894 21.3825 30.637 22.2511C33.3597 23.554 34.1376 23.8194 34.794 23.6988C35.4747 23.6023 35.7421 23.6988 36.2526 24.1814C37.0549 24.9776 37.0549 25.8945 36.2769 26.6425C35.5233 27.4146 34.5995 27.4146 33.7973 26.6184C33.3111 26.1358 33.2138 25.8462 33.3111 25.2189L33.4326 24.4227L29.932 22.7819L26.4313 21.1412L25.629 21.8409C25.2158 22.227 23.903 23.4334 22.7604 24.5433L20.6697 26.5701L19.3813 24.9535C18.6763 24.0849 18.0199 23.3851 17.9227 23.4334C17.8254 23.4816 16.3182 24.302 14.5435 25.2913C11.8694 26.8114 11.3589 27.1733 11.3589 27.6559C11.3589 28.428 10.3136 29.4173 9.53562 29.4173C8.73338 29.4173 7.71235 28.4039 7.71235 27.6076C7.71235 26.8596 8.70907 25.798 9.38976 25.798C9.65718 25.798 10.1434 25.9186 10.4837 26.0634C11.0186 26.3047 11.4318 26.1599 14.2518 24.5916C16.0022 23.6023 17.4365 22.7337 17.4365 22.613C17.4365 22.4924 17.1691 22.0339 16.8287 21.5755C15.5889 19.983 15.7347 17.8838 17.1691 16.3878C17.9713 15.5433 18.2144 15.4227 19.2111 15.4227C20.1349 15.4227 20.4509 15.5675 21.1803 16.2189L22.0068 17.0152L23.0035 15.857C24.0732 14.6506 25.0942 14.2404 26.334 14.5541C26.9904 14.723 28.2059 15.7846 28.4004 16.3396C28.4733 16.5567 29.0082 16.4602 30.5154 16.0259C32.3144 15.4709 32.5088 15.3503 32.5088 14.7953C32.5088 14.0232 33.5299 13.0098 34.3321 13.0098C34.6725 13.0098 35.2316 13.2752 35.5476 13.613Z" fill="black"/>
</svg>
